VIBRANT Trial - Primary Analyses
…
Integrating all assays into a MultiAssayExperiment object

In this section, we assemble all SE objects created in the previous section into a single MultiAssayExperiment object.

colData

Code

mae_coldata |> as_tibble()

# A tibble: 4,028 × 12
   sample_id pid   site  arm   dropout dropout_time visit_code visit_abbr
   <chr>     <chr> <fct> <fct> <lgl>          <int>      <dbl> <fct>     
 1 p1_0      p1    CAP   Pl    FALSE             NA          0 SCR       
 2 p1_1000   p1    CAP   Pl    FALSE             NA       1000 ENR       
 3 p1_1001   p1    CAP   Pl    FALSE             NA       1001 D-ABX     
 4 p1_1002   p1    CAP   Pl    FALSE             NA       1002 D-ABX     
 5 p1_1003   p1    CAP   Pl    FALSE             NA       1003 D-ABX     
 6 p1_1004   p1    CAP   Pl    FALSE             NA       1004 D-ABX     
 7 p1_1005   p1    CAP   Pl    FALSE             NA       1005 D-ABX     
 8 p1_1006   p1    CAP   Pl    FALSE             NA       1006 D-ABX     
 9 p1_1007   p1    CAP   Pl    FALSE             NA       1007 D-ABX     
10 p1_1100   p1    CAP   Pl    FALSE             NA       1100 Post-ABX  
# ℹ 4,018 more rows
# ℹ 4 more variables: visit_name <fct>, visit_number <dbl>, day <dbl>,
#   attended <lgl>
…
available_data <- 
  available_data |> 
  left_join(
    assay_collection_schedule,
    by = join_by(assay, visit_code)
  )

available_data <- 
  available_data |> 
  filter(assay_scheduled_at_visit) 

available_data

# A tibble: 1,419 × 13
   .feature .sample attended assay       pid   site  arm   visit_code visit_abbr
   <chr>    <chr>   <lgl>    <fct>       <chr> <fct> <fct>      <dbl> <fct>     
 1 attended p1_1000 TRUE     mg_ksanity  p1    CAP   Pl          1000 ENR       
 2 attended p1_1000 TRUE     amplicon_A… p1    CAP   Pl          1000 ENR       
 3 attended p1_1100 TRUE     mg_ksanity  p1    CAP   Pl          1100 Post-ABX  
 4 attended p1_1100 TRUE     amplicon_A… p1    CAP   Pl          1100 Post-ABX  
 5 attended p1_1200 TRUE     mg_ksanity  p1    CAP   Pl          1200 WFU       
 6 attended p1_1200 TRUE     amplicon_A… p1    CAP   Pl          1200 WFU       
 7 attended p1_1300 TRUE     mg_ksanity  p1    CAP   Pl          1300 WFU       
 8 attended p1_1300 TRUE     amplicon_A… p1    CAP   Pl          1300 WFU       
 9 attended p1_1400 TRUE     mg_ksanity  p1    CAP   Pl          1400 WFU       
10 attended p1_1400 TRUE     amplicon_A… p1    CAP   Pl          1400 WFU       
# ℹ 1,409 more rows
# ℹ 4 more variables: visit_name <fct>, visit_number <dbl>,
#   available_data <lgl>, assay_scheduled_at_visit <lgl>
…
