VIBRANT Trial - Primary Analyses
…
Integrating all assays into a MultiAssayExperiment object

In this section, we assemble all SE objects created in the previous section into a single MultiAssayExperiment object.

colData

Code

mae_coldata |> as_tibble()

# A tibble: 4,646 × 20
   sample_id site  arm   pid     age race     food_insecurity contraception
   <chr>     <fct> <fct> <fct> <int> <chr>    <chr>           <chr>        
 1 p1_0      CAP   Pl    p1       23 Multiple No              Copper IUD   
 2 p1_1000   CAP   Pl    p1       23 Multiple No              Copper IUD   
 3 p1_1001   CAP   Pl    p1       23 Multiple No              Copper IUD   
 4 p1_1002   CAP   Pl    p1       23 Multiple No              Copper IUD   
 5 p1_1003   CAP   Pl    p1       23 Multiple No              Copper IUD   
 6 p1_1004   CAP   Pl    p1       23 Multiple No              Copper IUD   
 7 p1_1005   CAP   Pl    p1       23 Multiple No              Copper IUD   
 8 p1_1006   CAP   Pl    p1       23 Multiple No              Copper IUD   
 9 p1_1007   CAP   Pl    p1       23 Multiple No              Copper IUD   
10 p1_1100   CAP   Pl    p1       23 Multiple No              Copper IUD   
# ℹ 4,636 more rows
# ℹ 12 more variables: gender_sexual_partners <chr>,
#   nb_partner_pastmonth <dbl>, nb_partner_life <dbl>, dropout <lgl>,
#   dropout_time <int>, visit_code <dbl>, visit_abbr <fct>, visit_name <fct>,
#   visit_number <dbl>, day <dbl>, attended <lgl>, planned <lgl>
…
available_data <- 
  available_data |> 
  left_join(
    assay_collection_schedule,
    by = join_by(assay, visit_code)
  )

available_data <- 
  available_data |> 
  filter(assay_scheduled_at_visit) 

available_data

# A tibble: 2,556 × 13
   .feature .sample attended assay       pid   site  arm   visit_code visit_abbr
   <chr>    <chr>   <lgl>    <fct>       <fct> <fct> <fct>      <dbl> <fct>     
 1 attended p1_1000 TRUE     mg_ksanity  p1    CAP   Pl          1000 ENR       
 2 attended p1_1000 TRUE     mg_virgo2   p1    CAP   Pl          1000 ENR       
 3 attended p1_1000 TRUE     amplicon_A… p1    CAP   Pl          1000 ENR       
 4 attended p1_1100 TRUE     mg_ksanity  p1    CAP   Pl          1100 Post-ABX  
 5 attended p1_1100 TRUE     mg_virgo2   p1    CAP   Pl          1100 Post-ABX  
 6 attended p1_1100 TRUE     amplicon_A… p1    CAP   Pl          1100 Post-ABX  
 7 attended p1_1200 TRUE     mg_ksanity  p1    CAP   Pl          1200 WFU       
 8 attended p1_1200 TRUE     mg_virgo2   p1    CAP   Pl          1200 WFU       
 9 attended p1_1200 TRUE     amplicon_A… p1    CAP   Pl          1200 WFU       
10 attended p1_1300 TRUE     mg_ksanity  p1    CAP   Pl          1300 WFU       
# ℹ 2,546 more rows
# ℹ 4 more variables: visit_name <fct>, visit_number <dbl>,
#   available_data <lgl>, assay_scheduled_at_visit <lgl>
…
